…
In the handbook, we concentrate on child growth (size for age) as the outcome of
interest. For reference, this trial was registered with ClinicalTrials.gov as
NCT01590095.


```r
library(readr)
# read in data via readr::read_csv
dat <- read_csv(
  paste0("https://raw.githubusercontent.com/tlverse/tlverse-data/master/",
         "wash-benefits/washb_data.csv")
)
head(dat)
#> # A tibble: 6 x 28
#>     whz tr     fracode month  aged sex    momage momedu momheight hfiacat  Nlt18
#>   <dbl> <chr>  <chr>   <dbl> <dbl> <chr>   <dbl> <chr>      <dbl> <chr>    <dbl>
#> 1  0    Contr… N05265      9   268 male       30 Prima…      146. Food Se…     3
#> 2 -1.16 Contr… N05265      9   286 male       25 Prima…      149. Moderat…     2
#> 3 -1.05 Contr… N08002      9   264 male       25 Prima…      152. Food Se…     1
#> 4 -1.26 Contr… N08002      9   252 female     28 Prima…      140. Food Se…     3
#> 5 -0.59 Contr… N06531      9   336 female     19 Secon…      151. Food Se…     2
#> # … with 1 more row, and 17 more variables: Ncomp <dbl>, watmin <dbl>,
#> #   elec <dbl>, floor <dbl>, walls <dbl>, roof <dbl>, asset_wardrobe <dbl>,
#> #   asset_table <dbl>, asset_chair <dbl>, asset_khat <dbl>, asset_chouki <dbl>,
#> #   asset_tv <dbl>, asset_refrig <dbl>, asset_bike <dbl>, asset_moto <dbl>,
#> #   asset_sewmach <dbl>, asset_mobile <dbl>
```
…
```r
# read in data
ist <- read_csv(
  paste0("https://raw.githubusercontent.com/tlverse/tlverse-handbook/master/",
         "data/ist_sample.csv")
)
head(ist)
#> # A tibble: 6 x 26
#>   RDELAY RCONSC SEX     AGE RSLEEP RATRIAL RCT   RVISINF RHEP24 RASP3  RSBP
#>    <dbl> <chr>  <chr> <dbl> <chr>  <chr>   <chr> <chr>   <chr>  <chr> <dbl>
#> 1     46 F      F        85 N      N       N     N       Y      N       150
#> 2     33 F      M        71 Y      Y       Y     Y       N      Y       180
#> 3      6 D      M        88 N      Y       N     N       N      N       140
#> 4      8 F      F        68 Y      N       Y     Y       N      N       118
#> 5     13 F      M        60 N      N       Y     N       N      N       140
#> # … with 1 more row, and 15 more variables: RDEF1 <chr>, RDEF2 <chr>,
#> #   RDEF3 <chr>, RDEF4 <chr>, RDEF5 <chr>, RDEF6 <chr>, RDEF7 <chr>,
#> #   RDEF8 <chr>, STYPE <chr>, RXHEP <chr>, REGION <chr>,
#> #   MISSING_RATRIAL_RASP3 <dbl>, MISSING_RHEP24 <dbl>, RXASP <dbl>,
#> #   DRSISC <dbl>
```
…
## NHANES I Epidemiologic Follow-up Study (NHEFS) {#NHEFS}

This data is from the National Health and Nutrition Examination Survey (NHANES)
Data I Epidemiologic Follow-up Study. More coming soon.


```r
# read in data
nhefs_data <- read_csv(
  paste0("https://raw.githubusercontent.com/tlverse/tlverse-handbook/master/",
         "data/NHEFS.csv")
)
head(nhefs_data)
#> # A tibble: 6 x 64
#>    seqn  qsmk death yrdth modth dadth   sbp   dbp   sex   age  race income
#>   <dbl> <dbl> <dbl> <dbl> <dbl> <dbl> <dbl> <dbl> <dbl> <dbl> <dbl>  <dbl>
#> 1   233     0     0    NA    NA    NA   175    96     0    42     1     19
#> 2   235     0     0    NA    NA    NA   123    80     0    36     0     18
#> 3   244     0     0    NA    NA    NA   115    75     1    56     1     15
#> 4   245     0     1    85     2    14   148    78     0    68     1     15
#> 5   252     0     0    NA    NA    NA   118    77     0    40     0     18
#> # … with 1 more row, and 52 more variables: marital <dbl>, school <dbl>,
#> #   education <dbl>, ht <dbl>, wt71 <dbl>, wt82 <dbl>, wt82_71 <dbl>,
#> #   birthplace <dbl>, smokeintensity <dbl>, smkintensity82_71 <dbl>,
#> #   smokeyrs <dbl>, asthma <dbl>, bronch <dbl>, tb <dbl>, hf <dbl>, hbp <dbl>,
#> #   pepticulcer <dbl>, colitis <dbl>, hepatitis <dbl>, chroniccough <dbl>,
#> #   hayfever <dbl>, diabetes <dbl>, polio <dbl>, tumor <dbl>,
#> #   nervousbreak <dbl>, alcoholpy <dbl>, alcoholfreq <dbl>, alcoholtype <dbl>,
#> #   alcoholhowmuch <dbl>, pica <dbl>, headache <dbl>, otherpain <dbl>,
#> #   weakheart <dbl>, allergies <dbl>, nerves <dbl>, lackpep <dbl>,
…
