Chapter 3 Datasets | The Hitchhiker’s Guide to the tlverse
…
improved nutrition through counseling and provision of lipid-based nutrient
supplements; and

combined water, sanitation, handwashing, and nutrition.

In the handbook, we concentrate on child growth (size for age) as the outcome of
interest. For reference, this trial was registered with ClinicalTrials.gov as
NCT01590095.

library(tidyverse)
# read in data
dat <- read_csv("https://raw.githubusercontent.com/tlverse/tlverse-data/master/wash-benefits/washb_data.csv")
dat

# A tibble: 4,695 x 28
     whz tr    fracode month  aged sex   momage momedu momheight hfiacat Nlt18
   <dbl> <chr> <chr>   <dbl> <dbl> <chr>  <dbl> <chr>      <dbl> <chr>   <dbl>
 1  0    Cont… N05265      9   268 male      30 Prima…      146. Food S…     3
 2 -1.16 Cont… N05265      9   286 male      25 Prima…      149. Modera…     2
 3 -1.05 Cont… N08002      9   264 male      25 Prima…      152. Food S…     1
 4 -1.26 Cont… N08002      9   252 fema…     28 Prima…      140. Food S…     3
 5 -0.59 Cont… N06531      9   336 fema…     19 Secon…      151. Food S…     2
 6 -0.51 Cont… N06531      9   304 male      20 Secon…      154. Severe…     0
 7 -2.46 Cont… N08002      9   336 fema…     19 Prima…      151. Food S…     2
 8 -0.6  Cont… N06528      9   312 fema…     25 No ed…      142. Food S…     2
 9 -0.23 Cont… N06528      9   322 male      30 Secon…      153. Food S…     1
10 -0.14 Cont… N06453      9   376 male      30 No ed…      156. Modera…     2
# … with 4,685 more rows, and 17 more variables: Ncomp <dbl>, watmin <dbl>,
#   elec <dbl>, floor <dbl>, walls <dbl>, roof <dbl>, asset_wardrobe <dbl>,
#   asset_table <dbl>, asset_chair <dbl>, asset_khat <dbl>, asset_chouki <dbl>,
#   asset_tv <dbl>, asset_refrig <dbl>, asset_bike <dbl>, asset_moto <dbl>,
#   asset_sewmach <dbl>, asset_mobile <dbl>
…
library(tidyverse)
# read in data
ist <- read_csv("https://raw.githubusercontent.com/tlverse/tlverse-handbook/master/data/ist_sample.csv")
ist

# A tibble: 5,000 x 26
   RDELAY RCONSC SEX     AGE RSLEEP RATRIAL RCT   RVISINF RHEP24 RASP3  RSBP
    <dbl> <chr>  <chr> <dbl> <chr>  <chr>   <chr> <chr>   <chr>  <chr> <dbl>
 1     46 F      F        85 N      N       N     N       Y      N       150
 2     33 F      M        71 Y      Y       Y     Y       N      Y       180
 3      6 D      M        88 N      Y       N     N       N      N       140
 4      8 F      F        68 Y      N       Y     Y       N      N       118
 5     13 F      M        60 N      N       Y     N       N      N       140
 6     16 F      F        71 Y      N       Y     N       N      N       160
 7      6 F      M        71 Y      N       N     N       N      Y       130
 8     15 F      M        84 N      N       Y     N       Y      N       160
 9      9 D      F        81 N      N       N     N       N      Y       138
10     20 F      F        70 Y      N       N     N       N      N       170
# … with 4,990 more rows, and 15 more variables: RDEF1 <chr>, RDEF2 <chr>,
#   RDEF3 <chr>, RDEF4 <chr>, RDEF5 <chr>, RDEF6 <chr>, RDEF7 <chr>,
#   RDEF8 <chr>, STYPE <chr>, RXHEP <chr>, REGION <chr>,
#   MISSING_RATRIAL_RASP3 <dbl>, MISSING_RHEP24 <dbl>, RXASP <dbl>,
#   DRSISC <dbl>
…
This data corresponds to a study conducted by the US Veterans Administration.
Male patients with advanced inoperable lung cancer were given either the
standard therapy or a test chemotherapy. The primary goal of the study was to
assess if the test chemotherapy improved survival. This data set has been
published in Kalbfleisch and Prentice (2011) and it is available in the MASS and
survival R packages. Time to death was recorded for 128 patients, and 9
patients left the study before death. Various covariates were also documented
for each patient.

library(tidyverse)
# read in data
vet <- read_csv("https://raw.githubusercontent.com/tlverse/tlverse-handbook/master/data/veteran.csv")
vet

# A tibble: 137 x 9
      X1   trt celltype  time status karno diagtime   age prior
   <dbl> <dbl> <chr>    <dbl>  <dbl> <dbl>    <dbl> <dbl> <dbl>
 1     1     1 squamous    72      1    60        7    69     0
 2     2     1 squamous   411      1    70        5    64    10
 3     3     1 squamous   228      1    60        3    38     0
 4     4     1 squamous   126      1    60        9    63    10
 5     5     1 squamous   118      1    70       11    65    10
 6     6     1 squamous    10      1    20        5    49     0
 7     7     1 squamous    82      1    40       10    69    10
 8     8     1 squamous   110      1    80       29    68     0
 9     9     1 squamous   314      1    50       18    43     0
10    10     1 squamous   100      0    70        6    70     0
# … with 127 more rows
…
